> 02 > teaching the tidyverse
…
## Pivot staff data

.midi[

```r
staff_long <- staff %>%
  pivot_longer(cols = -faculty_type, names_to = "year", 
               values_to = "percentage") %>%
  mutate(percentage = as.numeric(percentage))

staff_long
```

```
## # A tibble: 55 x 3
##    faculty_type              year  percentage
##    <chr>                     <chr>      <dbl>
##  1 Full-Time Tenured Faculty 1975        29  
##  2 Full-Time Tenured Faculty 1989        27.6
##  3 Full-Time Tenured Faculty 1993        25  
##  4 Full-Time Tenured Faculty 1995        24.8
##  5 Full-Time Tenured Faculty 1999        21.8
##  6 Full-Time Tenured Faculty 2001        20.3
##  7 Full-Time Tenured Faculty 2003        19.3
##  8 Full-Time Tenured Faculty 2005        17.8
##  9 Full-Time Tenured Faculty 2007        17.2
## 10 Full-Time Tenured Faculty 2009        16.8
## # … with 45 more rows
```
…
## Rowwise operations

- Lots of discussion around how to do these in the tidyverse, see [github.com/jennybc/row-oriented-workflows](https://github.com/jennybc/row-oriented-workflows) for in depth coverage

- Sometimes you need to do a simple thing, e.g. taking average of repeated measures recorded in columns in a data frame

.small[

```r
evals %>% select(score, starts_with("bty_"))
```

```
## # A tibble: 463 x 8
##    score bty_f1lower bty_f1upper bty_f2upper bty_m1lower bty_m1upper bty_m2upper
##    <dbl>       <int>       <int>       <int>       <int>       <int>       <int>
##  1   4.7           5           7           6           2           4           6
##  2   4.1           5           7           6           2           4           6
##  3   3.9           5           7           6           2           4           6
##  4   4.8           5           7           6           2           4           6
##  5   4.6           4           4           2           2           3           3
##  6   4.3           4           4           2           2           3           3
##  7   2.8           4           4           2           2           3           3
##  8   4.1           5           2           5           2           3           3
##  9   3.4           5           2           5           2           3           3
## 10   4.5           2           5           4           3           3           2
## # … with 453 more rows, and 1 more variable: bty_avg <dbl>
```
…
.small[

```r
# install_github("tidyverse/dplyr")
library(dplyr)
evals %>%
  rowwise() %>%
  mutate(bty_avg = mean(c(bty_f1lower, bty_f1upper, bty_f2upper, bty_m1lower, bty_m1upper, bty_m2upper))) %>%
  ungroup() %>%
  select(starts_with("bty_"))
```

```
## # A tibble: 463 x 7
##    bty_f1lower bty_f1upper bty_f2upper bty_m1lower bty_m1upper bty_m2upper
##          <int>       <int>       <int>       <int>       <int>       <int>
##  1           5           7           6           2           4           6
##  2           5           7           6           2           4           6
##  3           5           7           6           2           4           6
##  4           5           7           6           2           4           6
##  5           4           4           2           2           3           3
##  6           4           4           2           2           3           3
##  7           4           4           2           2           3           3
##  8           5           2           5           2           3           3
##  9           5           2           5           2           3           3
## 10           2           5           4           3           3           2
## # … with 453 more rows, and 1 more variable: bty_avg <dbl>
```
…
      l$purchases <- NULL
      l$hobbies <- list(l$hobbies)
      
      cbind(as_tibble(l), purchases) %>% as_tibble()
    }
  )
```

```
## # A tibble: 620 x 16
##    gender first_name last_name   age phone_number hobbies SetID Number Theme
##  * <chr>  <chr>      <chr>     <dbl> <chr>        <list>  <int> <chr>  <chr>
##  1 Female Kimberly   Beckstead    24 216-555-2549 <chr [… 24701 76062  DC C…
##  2 Male   Neel       Garvin       35 819-555-3189 <chr [… 25626 70595  Ninj…
##  3 Male   Neel       Garvin       35 819-555-3189 <chr [… 24665 21031  Arch…
##  4 Female Chelsea    Bouchard     41 <NA>         <chr [… 24695 31048  Crea…
##  5 Female Chelsea    Bouchard     41 <NA>         <chr [… 25626 70595  Ninj…
##  6 Female Chelsea    Bouchard     41 <NA>         <chr [… 24721 10831  Duplo
##  7 Female Bryanna    Welsh        19 <NA>         <chr [… 24797 75138  Star…
##  8 Female Bryanna    Welsh        19 <NA>         <chr [… 24701 76062  DC C…
##  9 Male   Caleb      Garcia-W…    37 907-555-9236 <chr [… 24730 41115  Frie…
## 10 Male   Caleb      Garcia-W…    37 907-555-9236 <chr [… 25611 21127  Mine…
## # … with 610 more rows, and 7 more variables: Subtheme <chr>, Year <int>,
## #   Name <chr>, Pieces <int>, USPrice <dbl>, ImageURL <chr>, Quantity <dbl>
```
…
---

## tidyr solution - Step 1

```r
sales %>%
  tibble(sales = .)
```

```
## # A tibble: 250 x 1
##    sales           
##    <list>          
##  1 <named list [7]>
##  2 <named list [7]>
##  3 <named list [6]>
##  4 <named list [6]>
##  5 <named list [7]>
##  6 <named list [7]>
##  7 <named list [7]>
##  8 <named list [7]>
##  9 <named list [7]>
## 10 <named list [7]>
## # … with 240 more rows
```

---

## tidyr solution - Step 2

```r
sales %>%
  tibble(sales = .) %>%
  unnest_wider(sales)
```

```
## # A tibble: 250 x 7
##    gender first_name last_name        age phone_number hobbies   purchases 
##    <chr>  <chr>      <chr>          <dbl> <chr>        <list>    <list>    
##  1 Female Kimberly   Beckstead         24 216-555-2549 <chr [2]> <list [1]>
##  2 Male   Neel       Garvin            35 819-555-3189 <chr [2]> <list [2]>
##  3 Female Chelsea    Bouchard          41 <NA>         <chr [3]> <list [3]>
##  4 Female Bryanna    Welsh             19 <NA>         <chr [2]> <list [2]>
##  5 Male   Caleb      Garcia-Wideman    37 907-555-9236 <chr [3]> <list [2]>
##  6 Male   Chase      Fortenberry       19 205-555-3704 <chr [2]> <list [2]>
##  7 Male   Kevin      Cruz              20 947-555-7946 <chr [1]> <list [1]>
##  8 Male   Connor     Brown             36 516-555-4310 <chr [1]> <list [3]>
##  9 Female Toni       Borison           40 284-555-4560 <chr [2]> <list [2]>
## 10 Male   Daniel     Hurst             44 251-555-0845 <chr [1]> <list [2]>
## # … with 240 more rows
```

---

## tidyr solution - Step 3

```r
sales %>%
  tibble(sales = .) %>%
  unnest_wider(sales) %>%
  unnest_longer(purchases)
```

```
## # A tibble: 620 x 7
##    gender first_name last_name        age phone_number hobbies   purchases       
##    <chr>  <chr>      <chr>          <dbl> <chr>        <list>    <list>          
##  1 Female Kimberly   Beckstead         24 216-555-2549 <chr [2]> <named list [10…
##  2 Male   Neel       Garvin            35 819-555-3189 <chr [2]> <named list [10…
##  3 Male   Neel       Garvin            35 819-555-3189 <chr [2]> <named list [10…
##  4 Female Chelsea    Bouchard          41 <NA>         <chr [3]> <named list [10…
##  5 Female Chelsea    Bouchard          41 <NA>         <chr [3]> <named list [10…
##  6 Female Chelsea    Bouchard          41 <NA>         <chr [3]> <named list [10…
##  7 Female Bryanna    Welsh             19 <NA>         <chr [2]> <named list [10…
##  8 Female Bryanna    Welsh             19 <NA>         <chr [2]> <named list [10…
##  9 Male   Caleb      Garcia-Wideman    37 907-555-9236 <chr [3]> <named list [10…
## 10 Male   Caleb      Garcia-Wideman    37 907-555-9236 <chr [3]> <named list [10…
## # … with 610 more rows
```

---

## tidyr solution - Step 4

```r
sales %>%
  tibble(sales = .) %>%
  unnest_wider(sales) %>%
  unnest_longer(purchases) %>%
  unnest_wider(purchases)
```

```
## # A tibble: 620 x 16
##    gender first_name last_name   age phone_number hobbies SetID Number Theme
##    <chr>  <chr>      <chr>     <dbl> <chr>        <list>  <int> <chr>  <chr>
##  1 Female Kimberly   Beckstead    24 216-555-2549 <chr [… 24701 76062  DC C…
##  2 Male   Neel       Garvin       35 819-555-3189 <chr [… 25626 70595  Ninj…
##  3 Male   Neel       Garvin       35 819-555-3189 <chr [… 24665 21031  Arch…
##  4 Female Chelsea    Bouchard     41 <NA>         <chr [… 24695 31048  Crea…
##  5 Female Chelsea    Bouchard     41 <NA>         <chr [… 25626 70595  Ninj…
##  6 Female Chelsea    Bouchard     41 <NA>         <chr [… 24721 10831  Duplo
##  7 Female Bryanna    Welsh        19 <NA>         <chr [… 24797 75138  Star…
##  8 Female Bryanna    Welsh        19 <NA>         <chr [… 24701 76062  DC C…
##  9 Male   Caleb      Garcia-W…    37 907-555-9236 <chr [… 24730 41115  Frie…
## 10 Male   Caleb      Garcia-W…    37 907-555-9236 <chr [… 25611 21127  Mine…
## # … with 610 more rows, and 7 more variables: Subtheme <chr>, Year <int>,
## #   Name <chr>, Pieces <int>, USPrice <dbl>, ImageURL <chr>, Quantity <dbl>
```
…
```
## Using `unnest_wider(sales)`; elements have 6 names in common
```

```
## Using `unnest_longer(purchases)`; no element has names
```

```
## Using `unnest_wider(purchases)`; elements have 10 names in common
```

```
## # A tibble: 620 x 16
##    gender first_name last_name   age phone_number hobbies SetID Number Theme
##    <chr>  <chr>      <chr>     <dbl> <chr>        <list>  <int> <chr>  <chr>
##  1 Female Kimberly   Beckstead    24 216-555-2549 <chr [… 24701 76062  DC C…
##  2 Male   Neel       Garvin       35 819-555-3189 <chr [… 25626 70595  Ninj…
##  3 Male   Neel       Garvin       35 819-555-3189 <chr [… 24665 21031  Arch…
##  4 Female Chelsea    Bouchard     41 <NA>         <chr [… 24695 31048  Crea…
##  5 Female Chelsea    Bouchard     41 <NA>         <chr [… 25626 70595  Ninj…
##  6 Female Chelsea    Bouchard     41 <NA>         <chr [… 24721 10831  Duplo
##  7 Female Bryanna    Welsh        19 <NA>         <chr [… 24797 75138  Star…
##  8 Female Bryanna    Welsh        19 <NA>         <chr [… 24701 76062  DC C…
##  9 Male   Caleb      Garcia-W…    37 907-555-9236 <chr [… 24730 41115  Frie…
## 10 Male   Caleb      Garcia-W…    37 907-555-9236 <chr [… 25611 21127  Mine…
## # … with 610 more rows, and 7 more variables: Subtheme <chr>, Year <int>,
## #   Name <chr>, Pieces <int>, USPrice <dbl>, ImageURL <chr>, Quantity <dbl>
```
…
