> 01 > curriculum design
…
---

.small[

```r
us_votes
```

```
## # A tibble: 5,256 x 14
##     rcid country country_code vote  session importantvote date       unres amend
##    <int> <chr>   <chr>        <fct>   <dbl> <chr>         <date>     <chr> <dbl>
##  1     6 United… US           no          1 No            1946-01-04 R/1/…     0
##  2     8 United… US           no          1 No            1946-01-05 R/1/…     1
##  3    11 United… US           yes         1 No            1946-02-05 R/1/…     0
##  4    18 United… US           no          1 No            1946-02-03 R/1/…     1
##  5    19 United… US           yes         1 No            1946-02-03 R/1/…     0
##  6    24 United… US           yes         1 No            1946-12-05 R/1/…     0
##  7    26 United… US           no          1 No            1946-12-06 R/1/…     0
##  8    27 United… US           yes         1 No            1946-12-06 R/1/…     0
##  9    28 United… US           yes         1 No            1946-12-06 R/1/…     0
## 10    29 United… US           yes         1 No            1946-12-06 R/1/…     0
## # … with 5,246 more rows, and 5 more variables: para <dbl>, short <chr>,
## #   descr <chr>, short_name <chr>, issue <chr>
```
…
---

## Suppose...

Estimate the difference between the average evaluation score of male and female faculty.

```
## # A tibble: 463 x 5
##    score rank         ethnicity    gender bty_avg
##    <dbl> <fct>        <fct>        <fct>    <dbl>
##  1   4.7 tenure track minority     female    5   
##  2   4.1 tenure track minority     female    5   
##  3   3.9 tenure track minority     female    5   
##  4   4.8 tenure track minority     female    5   
##  5   4.6 tenured      not minority male      3   
##  6   4.3 tenured      not minority male      3   
##  7   2.8 tenured      not minority male      3   
##  8   4.1 tenured      not minority male      3.33
##  9   3.4 tenured      not minority male      3.33
## 10   4.5 tenured      not minority female    3.17
## # … with 453 more rows
```
…
---

```r
evals %>%
  specify(score ~ gender)
```

```
## Response: score (numeric)
## Explanatory: gender (factor)
## # A tibble: 463 x 2
##    score gender
##    <dbl> <fct> 
##  1   4.7 female
##  2   4.1 female
##  3   3.9 female
##  4   4.8 female
##  5   4.6 male  
##  6   4.3 male  
##  7   2.8 male  
##  8   4.1 male  
##  9   3.4 male  
## 10   4.5 female
## # … with 453 more rows
```

---

```r
set.seed(1234)
evals %>%
  specify(score ~ gender) %>%
  generate(reps = 1000, type = "bootstrap")
```

```
## Response: score (numeric)
## Explanatory: gender (factor)
## # A tibble: 463,000 x 3
## # Groups:   replicate [1,000]
##    replicate score gender
##        <int> <dbl> <fct> 
##  1         1   4   female
##  2         1   3.1 male  
##  3         1   5   male  
##  4         1   4.4 male  
##  5         1   3.5 female
##  6         1   4.5 female
##  7         1   4.5 male  
##  8         1   4.9 male  
##  9         1   4.4 male  
## 10         1   3.5 male  
## # … with 462,990 more rows
```

---

```r
set.seed(1234)
evals %>%
  specify(score ~ gender) %>%
  generate(reps = 1000, type = "bootstrap") %>%
  calculate(stat = "diff in means", order = c("male", "female"))
```

```
## # A tibble: 1,000 x 2
##    replicate     stat
##        <int>    <dbl>
##  1         1  0.230  
##  2         2  0.134  
##  3         3  0.100  
##  4         4  0.230  
##  5         5  0.128  
##  6         6  0.201  
##  7         7  0.168  
##  8         8  0.130  
##  9         9 -0.00490
## 10        10  0.123  
## # … with 990 more rows
```
…
